CECS-Lab/simulator/waveform.vcd
$version Generated by VerilatedVcd $end
$timescale 1ps $end

 $scope module TOP $end
  $var wire  1 U clk $end
  $var wire  1 Y commit_wb $end
  $var wire 32 X inst [31:0] $end
  $var wire 32 W pc_cur [31:0] $end
  $var wire  1 V rstn $end
  $var wire  1 Z uncache_read_wb $end
  $scope module CPU $end
   $var wire 32 s D_CACHE_DEPTH [31:0] $end
   $var wire 32 s I_CACHE_DEPTH [31:0] $end
   $var wire 32 r PC_RST [31:0] $end
   $var wire  5 % alu_ctrl [4:0] $end
   $var wire 32 , alu_res [31:0] $end
   $var wire 32 * alu_src0 [31:0] $end
   $var wire  1 \ alu_src0_sel $end
   $var wire 32 + alu_src1 [31:0] $end
   $var wire  1 ] alu_src1_sel $end
   $var wire  1 h br $end
   $var wire  1 _ br_en $end
   $var wire  3 ^ br_type [2:0] $end
   $var wire  1 U clk $end
   $var wire  1 Y commit_wb $end
   $var wire 32 , dm_addr [31:0] $end
   $var wire 32 i dm_rd [31:0] $end
   $var wire 32 / dm_rd_raw [31:0] $end
   $var wire  1 j dm_re $end
   $var wire  3 ^ dm_type [2:0] $end
   $var wire 32 ( dm_wd [31:0] $end
   $var wire  1 c dm_we $end
   $var wire  1 c dm_we_raw $end
   $var wire 32 ) imm [31:0] $end
   $var wire  3 $ imm_type [2:0] $end
   $var wire 32 X inst [31:0] $end
   $var wire  1 ` jal $end
   $var wire  1 a jalr $end
   $var wire  2 k mask [1:0] $end
   $var wire 32 - pc_add4 [31:0] $end
   $var wire 32 W pc_cur [31:0] $end
   $var wire 32 , pc_jal_br [31:0] $end
   $var wire 32 . pc_jalr [31:0] $end
   $var wire 32 [ pc_next [31:0] $end
   $var wire  5 d rf_ra0 [4:0] $end
   $var wire  5 e rf_ra1 [4:0] $end
   $var wire 32 ' rf_rd0 [31:0] $end
   $var wire 32 ( rf_rd1 [31:0] $end
   $var wire  5 f rf_wa [4:0] $end
   $var wire 32 g rf_wd [31:0] $end
   $var wire  2 & rf_wd_sel [1:0] $end
   $var wire  1 b rf_we $end
   $var wire  1 V rstn $end
   $var wire  1 Z uncache_read_wb $end
   $scope module alu $end
    $var wire  5 % alu_ctrl [4:0] $end
    $var wire 32 , alu_res [31:0] $end
    $var wire 32 * alu_src0 [31:0] $end
    $var wire 32 + alu_src1 [31:0] $end
    $var wire 64 0 mul_res [63:0] $end
   $upscope $end
   $scope module alu_sel0 $end
    $var wire 32 * res [31:0] $end
    $var wire  1 \ sel $end
    $var wire 32 ' src0 [31:0] $end
    $var wire 32 W src1 [31:0] $end
   $upscope $end
   $scope module alu_sel1 $end
    $var wire 32 + res [31:0] $end
    $var wire  1 ] sel $end
    $var wire 32 ( src0 [31:0] $end
    $var wire 32 ) src1 [31:0] $end
   $upscope $end
   $scope module branch $end
    $var wire  1 h br $end
    $var wire  1 _ br_en $end
    $var wire  3 ^ br_type [2:0] $end
    $var wire 32 ' rf_rd0 [31:0] $end
    $var wire 32 ( rf_rd1 [31:0] $end
   $upscope $end
   $scope module d_cache $end
    $var wire 32 s DEPTH [31:0] $end
    $var wire 32 , addr [31:0] $end
    $var wire  1 U clk $end
    $var wire  2 k mask [1:0] $end
    $var wire 32 / rd [31:0] $end
    $var wire  1 j re $end
    $var wire 32 ( wd [31:0] $end
    $var wire  1 c we $end
   $upscope $end
   $scope module d_cache_ctrl $end
    $var wire 32 s DEPTH [31:0] $end
    $var wire 32 , addr [31:0] $end
    $var wire 32 , addr_raw [31:0] $end
    $var wire  3 ^ dm_type [2:0] $end
    $var wire  2 k mask [1:0] $end
    $var wire 32 i rd [31:0] $end
    $var wire 32 / rd_raw [31:0] $end
    $var wire 32 ( wd [31:0] $end
    $var wire 32 ( wd_raw [31:0] $end
    $var wire  1 c we $end
    $var wire  1 c we_raw $end
   $upscope $end
   $scope module i_cache $end
    $var wire 32 s DEPTH [31:0] $end
    $var wire 32 W addr [31:0] $end
    $var wire 32 X inst [31:0] $end
   $upscope $end
   $scope module imm_gen $end
    $var wire 32 ) imm [31:0] $end
    $var wire  3 $ imm_type [2:0] $end
    $var wire 32 X inst [31:0] $end
   $upscope $end
   $scope module inst_decoder $end
    $var wire  5 % alu_ctrl [4:0] $end
    $var wire  1 \ alu_src0_sel $end
    $var wire  1 ] alu_src1_sel $end
    $var wire  1 _ br_en $end
    $var wire  3 ^ br_type [2:0] $end
    $var wire  1 j dm_re_raw $end
    $var wire  3 ^ dm_type [2:0] $end
    $var wire  1 c dm_we_raw $end
    $var wire  3 ^ funct3 [2:0] $end
    $var wire  7 m funct7 [6:0] $end
    $var wire  3 $ imm_type [2:0] $end
    $var wire 32 X inst [31:0] $end
    $var wire  1 p is_auipc $end
    $var wire  1 _ is_b_type $end
    $var wire  1 o is_i_basic $end
    $var wire  1 2 is_i_type $end
    $var wire  1 ` is_j_type $end
    $var wire  1 a is_jalr $end
    $var wire  1 j is_load $end
    $var wire  1 q is_lui $end
    $var wire  1 n is_r_type $end
    $var wire  1 c is_s_type $end
    $var wire  1 3 is_u_type $end
    $var wire  1 ` jal $end
    $var wire  1 a jalr $end
    $var wire  7 l opcode [6:0] $end
    $var wire  2 & rf_wd_sel [1:0] $end
    $var wire  1 b rf_we $end
   $upscope $end
   $scope module npc_sel $end
    $var wire  1 h br $end
    $var wire  1 ` jal $end
    $var wire  1 a jalr $end
    $var wire 32 - pc_add4 [31:0] $end
    $var wire 32 , pc_jal_br [31:0] $end
    $var wire 32 . pc_jalr [31:0] $end
    $var wire 32 [ pc_next [31:0] $end
   $upscope $end
   $scope module pc $end
    $var wire 32 r PC_RST [31:0] $end
    $var wire  1 U clk $end
    $var wire 32 4 pc [31:0] $end
    $var wire 32 W pc_cur [31:0] $end
    $var wire 32 [ pc_next [31:0] $end
    $var wire  1 V rstn $end
   $upscope $end
   $scope module reg_file $end
    $var wire  1 U clk $end
    $var wire 32 # i [31:0] $end
    $var wire 32 5 reg_file[0] [31:0] $end
    $var wire 32 ? reg_file[10] [31:0] $end
    $var wire 32 @ reg_file[11] [31:0] $end
    $var wire 32 A reg_file[12] [31:0] $end
    $var wire 32 B reg_file[13] [31:0] $end
    $var wire 32 C reg_file[14] [31:0] $end
    $var wire 32 D reg_file[15] [31:0] $end
    $var wire 32 E reg_file[16] [31:0] $end
    $var wire 32 F reg_file[17] [31:0] $end
    $var wire 32 G reg_file[18] [31:0] $end
    $var wire 32 H reg_file[19] [31:0] $end
    $var wire 32 6 reg_file[1] [31:0] $end
    $var wire 32 I reg_file[20] [31:0] $end
    $var wire 32 J reg_file[21] [31:0] $end
    $var wire 32 K reg_file[22] [31:0] $end
    $var wire 32 L reg_file[23] [31:0] $end
    $var wire 32 M reg_file[24] [31:0] $end
    $var wire 32 N reg_file[25] [31:0] $end
    $var wire 32 O reg_file[26] [31:0] $end
    $var wire 32 P reg_file[27] [31:0] $end
    $var wire 32 Q reg_file[28] [31:0] $end
    $var wire 32 R reg_file[29] [31:0] $end
    $var wire 32 7 reg_file[2] [31:0] $end
    $var wire 32 S reg_file[30] [31:0] $end
    $var wire 32 T reg_file[31] [31:0] $end
    $var wire 32 8 reg_file[3] [31:0] $end
    $var wire 32 9 reg_file[4] [31:0] $end
    $var wire 32 : reg_file[5] [31:0] $end
    $var wire 32 ; reg_file[6] [31:0] $end
    $var wire 32 < reg_file[7] [31:0] $end
    $var wire 32 = reg_file[8] [31:0] $end
    $var wire 32 > reg_file[9] [31:0] $end
    $var wire  5 d rf_ra0 [4:0] $end
    $var wire  5 e rf_ra1 [4:0] $end
    $var wire 32 ' rf_rd0 [31:0] $end
    $var wire 32 ( rf_rd1 [31:0] $end
    $var wire  5 f rf_wa [4:0] $end
    $var wire 32 g rf_wd [31:0] $end
    $var wire  1 b rf_we $end
   $upscope $end
   $scope module rf_sel $end
    $var wire 32 g res [31:0] $end
    $var wire  2 & sel [1:0] $end
    $var wire 32 , src0 [31:0] $end
    $var wire 32 - src1 [31:0] $end
    $var wire 32 i src2 [31:0] $end
    $var wire 32 t src3 [31:0] $end
   $upscope $end
  $upscope $end
 $upscope $end
$enddefinitions $end


#0
b00000000000000000000000000100000 #
b001 $
b00000 %
b00 &
b00000000000000000000000000000000 '
b00000000000000000000000000000000 (
b00000000000000000000000000000000 )
b00000000000000000000000000000000 *
b00000000000000000000000000000000 +
b00000000000000000000000000000000 ,
b10000000000000000000000000000100 -
b00000000000000000000000000000000 .
b00000000000000000000010000010011 /
b0000000000000000000000000000000000000000000000000000000000000000 0
12
03
b10000000000000000000000000000000 4
b00000000000000000000000000000000 5
b00000000000000000000000000000000 6
b00000000000000000000000000000000 7
b00000000000000000000000000000000 8
b00000000000000000000000000000000 9
b00000000000000000000000000000000 :
b00000000000000000000000000000000 ;
b00000000000000000000000000000000 <
b00000000000000000000000000000000 =
b00000000000000000000000000000000 >
b00000000000000000000000000000000 ?
b00000000000000000000000000000000 @
b00000000000000000000000000000000 A
b00000000000000000000000000000000 B
b00000000000000000000000000000000 C
b00000000000000000000000000000000 D
b00000000000000000000000000000000 E
b00000000000000000000000000000000 F
b00000000000000000000000000000000 G
b00000000000000000000000000000000 H
b00000000000000000000000000000000 I
b00000000000000000000000000000000 J
b00000000000000000000000000000000 K
b00000000000000000000000000000000 L
b00000000000000000000000000000000 M
b00000000000000000000000000000000 N
b00000000000000000000000000000000 O
b00000000000000000000000000000000 P
b00000000000000000000000000000000 Q
b00000000000000000000000000000000 R
b00000000000000000000000000000000 S
b00000000000000000000000000000000 T
0U
0V
b10000000000000000000000000000000 W
b00000000000000000000010000010011 X
1Y
0Z
b10000000000000000000000000000100 [
0\
1]
b000 ^
0_
0`
0a
1b
0c
b00000 d
b00000 e
b01000 f
b00000000000000000000000000000000 g
0h
b00000000000000000000000000010011 i
0j
b00 k
b0010011 l
b0000000 m
0n
1o
0p
0q
b10000000000000000000000000000000 r
b00000000000000000000000000001000 s
b00000000000000000000000000000000 t
#1
b100 $
b00000000000000011011000000000000 )
b10000000000000000000000000000100 *
b00000000000000011011000000000000 +
b10000000000000011011000000000100 ,
b10000000000000000000000000001000 -
b10000000000000011011000000000100 .
b00000000000000011011000100010111 /
02
13
b10000000000000000000000000000100 4
1V
b10000000000000000000000000000100 W
b00000000000000011011000100010111 X
b10000000000000000000000000001000 [
1\
b011 ^
b00011 d
b00010 f
b10000000000000011011000000000100 g
b00000000000000000000000000000000 i
b11 k
b0010111 l
0o
1p
#2
b001 $
b10000000000000011011000000000100 '
b11111111111111111111111111111100 )
b10000000000000011011000000000100 *
b11111111111111111111111111111100 +
b10000000000000011011000000000000 ,
b10000000000000000000000000001100 -
b10000000000000011011000000000000 .
b11111111110000010000000100010011 /
12
03
b10000000000000000000000000001000 4
b10000000000000011011000000000100 7
b10000000000000000000000000001000 W
b11111111110000010000000100010011 X
b10000000000000000000000000001100 [
0\
b000 ^
b00010 d
b11100 e
b10000000000000011011000000000000 g
b00000000000000000000000000010011 i
b00 k
b0010011 l
b1111111 m
1o
0p
#3
b101 $
b01 &
b00000000000000000000000000000000 '
b00000000000000000000001010110000 )
b10000000000000000000000000001100 *
b00000000000000000000001010110000 +
b10000000000000000000001010111100 ,
b10000000000000000000000000010000 -
b10000000000000000000001010111100 .
b00101011000000000000000011101111 /
02
b10000000000000000000000000001100 4
b10000000000000011011000000000000 7
b10000000000000000000000000001100 W
b00101011000000000000000011101111 X
b10000000000000000000001010111100 [
1\
1`
b00000 d
b10000 e
b00001 f
b10000000000000000000000000010000 g
b11111111111111111111111111101111 i
b1101111 l
b0010101 m
0o
#4
b100 $
b11000 %
b00 &
b10000000000000000010000000000000 )
b00000000000000000000000000000000 *
b10000000000000000010000000000000 +
b10000000000000000010000000000000 ,
b10000000000000000000001011000000 -
b10000000000000000010000000000000 .
b10000000000000000010010100110111 /
13
b10000000000000000000001010111100 4
b10000000000000000000000000010000 6
b10000000000000000000001010111100 W
b10000000000000000010010100110111 X
b10000000000000000000001011000000 [
0\
b010 ^
0`
b00000 e
b01010 f
b10000000000000000010000000000000 g
b10000000000000000010010100110111 i
b10 k
b0110111 l
b1000000 m
1q
#5
b001 $
b00000 %
b10000000000000011011000000000000 '
b11111111111111111111111111110000 )
b10000000000000011011000000000000 *
b11111111111111111111111111110000 +
b10000000000000011010111111110000 ,
b10000000000000000000001011000100 -
b10000000000000011010111111110000 .
b11111111000000010000000100010011 /
12
03
b10000000000000000000001011000000 4
b10000000000000000010000000000000 ?
b10000000000000000000001011000000 W
b11111111000000010000000100010011 X
b10000000000000000000001011000100 [
b000 ^
b00010 d
b10000 e
b00010 f
b10000000000000011010111111110000 g
b00000000000000000000000000010011 i
b00 k
b0010011 l
b1111111 m
1o
0q
#6
b10000000000000000010000000000000 '
b00000000000000000000011111100000 )
b10000000000000000010000000000000 *
b00000000000000000000011111100000 +
b10000000000000000010011111100000 ,
b10000000000000000000001011001000 -
b10000000000000000010011111100000 .
b01111110000001010000010100010011 /
b10000000000000000000001011000100 4
b10000000000000011010111111110000 7
b10000000000000000000001011000100 W
b01111110000001010000010100010011 X
b10000000000000000000001011001000 [
b01010 d
b00000 e
b01010 f
b10000000000000000010011111100000 g
b0111111 m
#7
b010 $
b10000000000000011010111111110000 '
b10000000000000000000000000010000 (
b00000000000000000000000000001100 )
b10000000000000011010111111110000 *
b00000000000000000000000000001100 +
b10000000000000011010111111111100 ,
b10000000000000000000001011001100 -
b10000000000000011010111111111100 .
b00000000000100010010011000100011 /
02
b10000000000000000000001011001000 4
b10000000000000000010011111100000 ?
b10000000000000000000001011001000 W
b00000000000100010010011000100011 X
b10000000000000000000001011001100 [
b010 ^
0b
1c
b00010 d
b00001 e
b01100 f
b10000000000000011010111111111100 g
b00000000000100010010011000100011 i
b10 k
b0100011 l
b0000000 m
0o
#8
b101 $
b01 &
b00000000000000000000000000000000 '
b00000000000000000000000000000000 (
b11111111111111111111110101000100 )
b10000000000000000000001011001100 *
b11111111111111111111110101000100 +
b10000000000000000000000000010000 ,
b10000000000000000000001011010000 -
b10000000000000000000000000010000 .
b11010100010111111111000011101111 /
b10000000000000000000001011001100 4
b10000000000000000000001011001100 W
b11010100010111111111000011101111 X
b10000000000000000000000000010000 [
1\
b111 ^
1`
1b
0c
b11111 d
b00101 e
b00001 f
b10000000000000000000001011010000 g
b00000000000000000000000000000000 i
b11 k
b1101111 l
b1101010 m
#9
b001 $
b00 &
b10000000000000011010111111110000 '
b11111111111111111111111111110000 )
b10000000000000011010111111110000 *
b11111111111111111111111111110000 +
b10000000000000011010111111100000 ,
b10000000000000000000000000010100 -
b10000000000000011010111111100000 .
b11111111000000010000000100010011 /
12
b10000000000000000000000000010000 4
b10000000000000000000001011010000 6
b10000000000000000000000000010000 W
b11111111000000010000000100010011 X
b10000000000000000000000000010100 [
0\
b000 ^
0`
b00010 d
b10000 e
b00010 f
b10000000000000011010111111100000 g
b00000000000000000000000000010011 i
b00 k
b0010011 l
b1111111 m
1o
#10
b010 $
b10000000000000011010111111100000 '
b00000000000000000000000000001000 )
b10000000000000011010111111100000 *
b00000000000000000000000000001000 +
b10000000000000011010111111101000 ,
b10000000000000000000000000011000 -
b10000000000000011010111111101000 .
b00000000100000010010010000100011 /
02
b10000000000000000000000000010100 4
b10000000000000011010111111100000 7
b10000000000000000000000000010100 W
b00000000100000010010010000100011 X
b10000000000000000000000000011000 [
b010 ^
0b
1c
b01000 e
b01000 f
b10000000000000011010111111101000 g
b00000000100000010010010000100011 i
b10 k
b0100011 l
b0000000 m
0o
#11
b00000000000000000000000000000100 )
b00000000000000000000000000000100 +
b10000000000000011010111111100100 ,
b10000000000000000000000000011100 -
b10000000000000011010111111100100 .
b00000000100100010010001000100011 /
b10000000000000000000000000011000 4
b10000000000000000000000000011000 W
b00000000100100010010001000100011 X
b10000000000000000000000000011100 [
b01001 e
b00100 f
b10000000000000011010111111100100 g
b00000000100100010010001000100011 i
#12
b00000000000000000000000000000000 )
b00000000000000000000000000000000 +
b10000000000000011010111111100000 ,
b10000000000000000000000000100000 -
b10000000000000011010111111100000 .
b00000001001000010010000000100011 /
b10000000000000000000000000011100 4
b10000000000000000000000000011100 W
b00000001001000010010000000100011 X
b10000000000000000000000000100000 [
b10010 e
b00000 f
b10000000000000011010111111100000 g
b00000001001000010010000000100011 i
#13
b10000000000000000000001011010000 (
b00000000000000000000000000001100 )
b00000000000000000000000000001100 +
b10000000000000011010111111101100 ,
b10000000000000000000000000100100 -
b10000000000000011010111111101100 .
b00000000000100010010011000100011 /
b10000000000000000000000000100000 4
b10000000000000000000000000100000 W
b00000000000100010010011000100011 X
b10000000000000000000000000100100 [
b00001 e
b01100 f
b10000000000000011010111111101100 g
b00000000000100010010011000100011 i
#14
b001 $
b00000000000000000000000000000000 '
b00000000000000000000000000000000 (
b00000000000000000000000000000000 )
b00000000000000000000000000000000 *
b00000000000000000000000000000000 +
b00000000000000000000000000000000 ,
b10000000000000000000000000101000 -
b00000000000000000000000000000000 .
b00000000000000000000010000010011 /
12
b10000000000000000000000000100100 4
b10000000000000000000000000100100 W
b00000000000000000000010000010011 X
b10000000000000000000000000101000 [
b000 ^
1b
0c
b00000 d
b00000 e
b01000 f
b00000000000000000000000000000000 g
b00000000000000000000000000010011 i
b00 k
b0010011 l
1o
#15
b101 $
b01 &
b00000000000000000000000011010100 )
b10000000000000000000000000101000 *
b00000000000000000000000011010100 +
b10000000000000000000000011111100 ,
b10000000000000000000000000101100 -
b10000000000000000000000011111100 .
b00001101010000000000000011101111 /
02
b10000000000000000000000000101000 4
b10000000000000000000000000101000 W
b00001101010000000000000011101111 X
b10000000000000000000000011111100 [
1\
1`
b10100 e
b00001 f
b10000000000000000000000000101100 g
b11111111111111111111111111101111 i
b1101111 l
b0000110 m
0o
#16
b100 $
b11000 %
b00 &
b10000000000000000010000000000000 )
b00000000000000000000000000000000 *
b10000000000000000010000000000000 +
b10000000000000000010000000000000 ,
b10000000000000000000000100000000 -
b10000000000000000010000000000000 .
b10000000000000000010011110110111 /
13
b10000000000000000000000011111100 4
b10000000000000000000000000101100 6
b10000000000000000000000011111100 W
b10000000000000000010011110110111 X
b10000000000000000000000100000000 [
0\
b010 ^
0`
b00000 e
b01111 f
b10000000000000000010000000000000 g
b10000000000000000010011110110111 i
b10 k
b0110111 l
b1000000 m
1q
#17
b001 $
b00000 %
b10000000000000011010111111100000 '
b11111111111111111111111111110000 )
b10000000000000011010111111100000 *
b11111111111111111111111111110000 +
b10000000000000011010111111010000 ,
b10000000000000000000000100000100 -
b10000000000000011010111111010000 .
b11111111000000010000000100010011 /
12
03
b10000000000000000000000100000000 4
b10000000000000000010000000000000 D
b10000000000000000000000100000000 W
b11111111000000010000000100010011 X
b10000000000000000000000100000100 [
b000 ^
b00010 d
b10000 e
b00010 f
b10000000000000011010111111010000 g
b00000000000000000000000000010011 i
b00 k
b0010011 l
b1111111 m
1o
0q
#18
b10000000000000000010000000000000 '
b00000000000000000000011111100100 )
b10000000000000000010000000000000 *
b00000000000000000000011111100100 +
b10000000000000000010011111100100 ,
b10000000000000000000000100001000 -
b10000000000000000010011111100100 .
b01111110010001111000011110010011 /
b10000000000000000000000100000100 4
b10000000000000011010111111010000 7
b10000000000000000000000100000100 W
b01111110010001111000011110010011 X
b10000000000000000000000100001000 [
b01111 d
b00100 e
b01111 f
b10000000000000000010011111100100 g
b11111111111111111111111110010011 i
b0111111 m
#19
b100 $
b11000 %
b00000000000000000000000000000000 '
b10000000000000000000000000000000 )
b00000000000000000000000000000000 *
b10000000000000000000000000000000 +
b10000000000000000000000000000000 ,
b10000000000000000000000100001100 -
b10000000000000000000000000000000 .
b10000000000000000000011000110111 /
02
13
b10000000000000000000000100001000 4
b10000000000000000010011111100100 D
b10000000000000000000000100001000 W
b10000000000000000000011000110111 X
b10000000000000000000000100001100 [
b00000 d
b00000 e
b01100 f
b10000000000000000000000000000000 g
b00000000000000000000000000110111 i
b0110111 l
b1000000 m
0o
1q
#20
b010 $
b00000 %
b10000000000000011010111111010000 '
b10000000000000000000000000101100 (
b00000000000000000000000000001100 )
b10000000000000011010111111010000 *
b00000000000000000000000000001100 +
b10000000000000011010111111011100 ,
b10000000000000000000000100010000 -
b10000000000000011010111111011100 .
b00000000000100010010011000100011 /
03
b10000000000000000000000100001100 4
b10000000000000000000000000000000 A
b10000000000000000000000100001100 W
b00000000000100010010011000100011 X
b10000000000000000000000100010000 [
b010 ^
0b
1c
b00010 d
b00001 e
b10000000000000011010111111011100 g
b00000000000100010010011000100011 i
b10 k
b0100011 l
b0000000 m
0q
#21
b001 $
b10000000000000000010011111100100 '
b00000000000000000000000000000000 (
b00000000000000000000001000000000 )
b10000000000000000010011111100100 *
b00000000000000000000001000000000 +
b10000000000000000010100111100100 ,
b10000000000000000000000100010100 -
b10000000000000000010100111100100 .
b00100000000001111000011010010011 /
12
b10000000000000000000000100010000 4
b10000000000000000000000100010000 W
b00100000000001111000011010010011 X
b10000000000000000000000100010100 [
b000 ^
1b
0c
b01111 d
b00000 e
b01101 f
b10000000000000000010100111100100 g
b11111111111111111111111110010011 i
b00 k
b0010011 l
b0010000 m
1o
#22
b10000000000000000000000000000000 '
b00000000000000000000000010001000 )
b10000000000000000000000000000000 *
b00000000000000000000000010001000 +
b10000000000000000000000010001000 ,
b10000000000000000000000100011000 -
b10000000000000000000000010001000 .
b00001000100001100000011000010011 /
b10000000000000000000000100010100 4
b10000000000000000010100111100100 B
b10000000000000000000000100010100 W
b00001000100001100000011000010011 X
b10000000000000000000000100011000 [
b01100 d
b01000 e
b01100 f
b10000000000000000000000010001000 g
b00000000000000000000000000010011 i
b0000100 m
#23
b101 $
b01 &
b00000000000000000000000000000000 '
b10000000000000000000000010001000 (
b00000000000000000000000000001100 )
b10000000000000000000000100011000 *
b00000000000000000000000000001100 +
b10000000000000000000000100100100 ,
b10000000000000000000000100011100 -
b10000000000000000000000100100100 .
b00000000110000000000000001101111 /
02
b10000000000000000000000100011000 4
b10000000000000000000000010001000 A
b10000000000000000000000100011000 W
b00000000110000000000000001101111 X
b10000000000000000000000100100100 [
1\
1`
b00000 d
b01100 e
b00000 f
b10000000000000000000000100011100 g
b00000000000000000000000001101111 i
b1101111 l
b0000000 m
0o
#24
b001 $
b10 &
b10000000000000000010011111100100 '
b00000000000000000000000000000000 (
b00000000000000000000000000000000 )
b10000000000000000010011111100100 *
b00000000000000000000000000000000 +
b10000000000000000010011111100100 ,
b10000000000000000000000100101000 -
b10000000000000000010011111100100 .
b00000000000000000000000000000000 /
12
b10000000000000000000000100100100 4
b10000000000000000000000100100100 W
b00000000000001111010011100000011 X
b10000000000000000000000100101000 [
0\
b010 ^
0`
b01111 d
b00000 e
b01110 f
b00000000000000000000000000000000 g
b00000000000000000000000000000000 i
1j
b10 k
b0000011 l
#25
b011 $
b00 &
b00000000000000000000000000000000 '
b11111111111111111111111111110100 )
b10000000000000000000000100101000 *
b11111111111111111111111111110100 +
b10000000000000000000000100011100 ,
b10000000000000000000000100101100 -
b10000000000000000000000100011100 .
b11111110000001110001101011100011 /
02
b10000000000000000000000100101000 4
b10000000000000000000000100101000 W
b11111110000001110001101011100011 X
b10000000000000000000000100101100 [
1\
b001 ^
1_
0b
b01110 d
b10101 f
b10000000000000000000000100011100 g
b00000000000000000001101011100011 i
0j
b01 k
b1100011 l
b1111111 m
#26
b010 $
b10000000000000000010011111100100 '
b10000000000000000000000010001000 (
b00000000000000000000000000000000 )
b10000000000000000010011111100100 *
b00000000000000000000000000000000 +
b10000000000000000010011111100100 ,
b10000000000000000000000100110000 -
b10000000000000000010011111100100 .
b00000000110001111010000000100011 /
b10000000000000000000000100101100 4
b10000000000000000000000100101100 W
b00000000110001111010000000100011 X
b10000000000000000000000100110000 [
0\
b010 ^
0_
1c
b01111 d
b01100 e
b00000 f
b10000000000000000010011111100100 g
b00000000110001111010000000100011 i
b10 k
b0100011 l
b0000000 m
#27
b001 $
b00000000000000000000000000000000 (
b00000000000000000000000000000100 )
b00000000000000000000000000000100 +
b10000000000000000010011111101000 ,
b10000000000000000000000100110100 -
b10000000000000000010011111101000 .
b00000000010001111000011110010011 /
12
b10000000000000000000000100110000 4
b10000000000000000000000100110000 W
b00000000010001111000011110010011 X
b10000000000000000000000100110100 [
b000 ^
1b
0c
b00100 e
b01111 f
b10000000000000000010011111101000 g
b11111111111111111111111110010011 i
b00 k
b0010011 l
1o
#28
b011 $
b10000000000000000010011111101000 '
b10000000000000000010100111100100 (
b11111111111111111111111111110000 )
b10000000000000000000000100110100 *
b11111111111111111111111111110000 +
b10000000000000000000000100100100 ,
b10000000000000000000000100111000 -
b10000000000000000000000100100100 .
b11111110110101111001100011100011 /
02
b10000000000000000000000100110100 4
b10000000000000000010011111101000 D
b10000000000000000000000100110100 W
b11111110110101111001100011100011 X
b10000000000000000000000100100100 [
1\
b001 ^
1_
0b
b01101 e
b10001 f
b10000000000000000000000100100100 g
1h
b11111111111111111001100011100011 i
b01 k
b1100011 l
b1111111 m
0o
#29
b001 $
b10 &
b00000000000000000000000000000000 (
b00000000000000000000000000000000 )
b10000000000000000010011111101000 *
b00000000000000000000000000000000 +
b10000000000000000010011111101000 ,
b10000000000000000000000100101000 -
b10000000000000000010011111101000 .
b10000000000000000000000010000000 /
12
b10000000000000000000000100100100 4
b10000000000000000000000100100100 W
b00000000000001111010011100000011 X
b10000000000000000000000100101000 [
0\
b010 ^
0_
1b
b00000 e
b01110 f
b10000000000000000000000010000000 g
0h
b10000000000000000000000010000000 i
1j
b10 k
b0000011 l
b0000000 m
#30
b011 $
b00 &
b10000000000000000000000010000000 '
b11111111111111111111111111110100 )
b10000000000000000000000100101000 *
b11111111111111111111111111110100 +
b10000000000000000000000100011100 ,
b10000000000000000000000100101100 -
b10000000000000000000000100011100 .
b11111110000001110001101011100011 /
02
b10000000000000000000000100101000 4
b10000000000000000000000010000000 C
b10000000000000000000000100101000 W
b11111110000001110001101011100011 X
b10000000000000000000000100011100 [
1\
b001 ^
1_
0b
b01110 d
b10101 f
b10000000000000000000000100011100 g
1h
b00000000000000000001101011100011 i
0j
b01 k
b1100011 l
b1111111 m
#31
b001 $
b10000000000000000010011111101000 '
b00000000000000000000000000000100 )
b10000000000000000010011111101000 *
b00000000000000000000000000000100 +
b10000000000000000010011111101100 ,
b10000000000000000000000100100000 -
b10000000000000000010011111101100 .
b00000000010001111000011110010011 /
12
b10000000000000000000000100011100 4
b10000000000000000000000100011100 W
b00000000010001111000011110010011 X
b10000000000000000000000100100000 [
0\
b000 ^
0_
1b
b01111 d
b00100 e
b01111 f
b10000000000000000010011111101100 g
0h
b11111111111111111111111110010011 i
b00 k
b0010011 l
b0000000 m
1o
#32
b011 $
b10000000000000000010011111101100 '
b10000000000000000010100111100100 (
b00000000000000000000000000011000 )
b10000000000000000000000100100000 *
b00000000000000000000000000011000 +
b10000000000000000000000100111000 ,
b10000000000000000000000100100100 -
b10000000000000000000000100111000 .
b00000000110101111000110001100011 /
02
b10000000000000000000000100100000 4
b10000000000000000010011111101100 D
b10000000000000000000000100100000 W
b00000000110101111000110001100011 X
b10000000000000000000000100100100 [
1\
1_
0b
b01101 e
b11000 f
b10000000000000000000000100111000 g
b00000000000000000000000001100011 i
b1100011 l
0o
#33
b001 $
b10 &
b00000000000000000000000000000000 (
b00000000000000000000000000000000 )
b10000000000000000010011111101100 *
b00000000000000000000000000000000 +
b10000000000000000010011111101100 ,
b10000000000000000000000100101000 -
b10000000000000000010011111101100 .
b00000000000000000000000000000000 /
12
b10000000000000000000000100100100 4
b10000000000000000000000100100100 W
b00000000000001111010011100000011 X
b10000000000000000000000100101000 [
0\
b010 ^
0_
1b
b00000 e
b01110 f
b00000000000000000000000000000000 g
b00000000000000000000000000000000 i
1j
b10 k
b0000011 l
#34
b011 $
b00 &
b00000000000000000000000000000000 '
b11111111111111111111111111110100 )
b10000000000000000000000100101000 *
b11111111111111111111111111110100 +
b10000000000000000000000100011100 ,
b10000000000000000000000100101100 -
b10000000000000000000000100011100 .
b11111110000001110001101011100011 /
02
b10000000000000000000000100101000 4
b00000000000000000000000000000000 C
b10000000000000000000000100101000 W
b11111110000001110001101011100011 X
b10000000000000000000000100101100 [
1\
b001 ^
1_
0b
b01110 d
b10101 f
b10000000000000000000000100011100 g
b00000000000000000001101011100011 i
0j
b01 k
b1100011 l
b1111111 m
#35
b010 $
b10000000000000000010011111101100 '
b10000000000000000000000010001000 (
b00000000000000000000000000000000 )
b10000000000000000010011111101100 *
b00000000000000000000000000000000 +
b10000000000000000010011111101100 ,
b10000000000000000000000100110000 -
b10000000000000000010011111101100 .
b00000000110001111010000000100011 /
b10000000000000000000000100101100 4
b10000000000000000000000100101100 W
b00000000110001111010000000100011 X
b10000000000000000000000100110000 [
0\
b010 ^
0_
1c
b01111 d
b01100 e
b00000 f
b10000000000000000010011111101100 g
b00000000110001111010000000100011 i
b10 k
b0100011 l
b0000000 m
#36
b001 $
b00000000000000000000000000000000 (
b00000000000000000000000000000100 )
b00000000000000000000000000000100 +
b10000000000000000010011111110000 ,
b10000000000000000000000100110100 -
b10000000000000000010011111110000 .
b00000000010001111000011110010011 /
12
b10000000000000000000000100110000 4
b10000000000000000000000100110000 W
b00000000010001111000011110010011 X
b10000000000000000000000100110100 [
b000 ^
1b
0c
b00100 e
b01111 f
b10000000000000000010011111110000 g
b11111111111111111111111110010011 i
b00 k
b0010011 l
1o
